<svg xmlns="http://www.w3.org/2000/svg" width="19.606" height="19.713" viewBox="0 0 19.606 19.713">
  <g id="그룹_6938" data-name="그룹 6938" transform="translate(-1043.463 -1223.625)">
    <g id="그룹_6937" data-name="그룹 6937" transform="translate(1049.489 1224.375)">
      <line id="선_2478" data-name="선 2478" y2="1.423" transform="translate(3.81 0)" fill="none" stroke="#e38a88" stroke-linecap="round" stroke-linejoin="round" stroke-width="1.5"/>
      <line id="선_2479" data-name="선 2479" x1="0.711" y2="1.232" transform="translate(6.908 0.417)" fill="none" stroke="#e38a88" stroke-linecap="round" stroke-linejoin="round" stroke-width="1.5"/>
      <line id="선_2480" data-name="선 2480" x2="0.711" y2="1.232" transform="translate(0 0.417)" fill="none" stroke="#e38a88" stroke-linecap="round" stroke-linejoin="round" stroke-width="1.5"/>
    </g>
    <path id="패스_5137" data-name="패스 5137" d="M1049.278,1240.392l-5.065,5.127,9.053,9.035,9.053-9.035-5.065-5.127Z" transform="translate(0 -11.965)" fill="none" stroke="#e38a88" stroke-linecap="round" stroke-linejoin="round" stroke-width="1.5"/>
    <line id="선_2481" data-name="선 2481" x2="18.105" transform="translate(1044.213 1233.553)" fill="none" stroke="#e38a88" stroke-linecap="round" stroke-linejoin="round" stroke-width="1.5"/>
    <line id="선_2482" data-name="선 2482" y1="4.91" transform="translate(1049.278 1228.427)" fill="none" stroke="#e38a88" stroke-linecap="round" stroke-linejoin="round" stroke-width="1.5"/>
    <line id="선_2483" data-name="선 2483" y2="4.91" transform="translate(1057.254 1228.427)" fill="none" stroke="#e38a88" stroke-linecap="round" stroke-linejoin="round" stroke-width="1.5"/>
    <path id="패스_5138" data-name="패스 5138" d="M1064.234,1259.8l3.988,9.252,3.988-9.252" transform="translate(-14.957 -26.464)" fill="none" stroke="#e38a88" stroke-linecap="round" stroke-linejoin="round" stroke-width="1.5"/>
  </g>
</svg>
