<svg xmlns="http://www.w3.org/2000/svg" width="48.083" height="44.173" viewBox="0 0 48.083 44.173">
  <g id="그룹_7081" data-name="그룹 7081" transform="translate(-1197.673 -4297.525)">
    <path id="패스_4480" data-name="패스 4480" d="M79.14,77.391C65.861,77.391,55.1,85.9,55.1,96.4c0,6.832,4.561,12.82,11.405,16.17-.5,1.878-1.821,6.8-2.085,7.855-.325,1.308.48,1.29,1.007.938.413-.275,6.588-4.472,9.252-6.284a30.445,30.445,0,0,0,4.463.328c13.278,0,24.042-8.511,24.042-19.007S92.417,77.391,79.14,77.391" transform="translate(1142.575 4220.134)" fill="#999"/>
    <g id="그룹_7022" data-name="그룹 7022" transform="translate(1206.73 4312.017)">
      <path id="패스_4481" data-name="패스 4481" d="M110.992,185.048h-5.634a.958.958,0,1,0,0,1.916h1.831v6.749a.938.938,0,0,0,.935.935h.2a.937.937,0,0,0,.933-.935v-6.749h1.73a.958.958,0,1,0,0-1.916Z" transform="translate(-104.4 -184.913)" fill="#4f4848"/>
      <path id="패스_4482" data-name="패스 4482" d="M263.731,191.627h-2.62v-6.893a1.039,1.039,0,1,0-2.079,0v7.43a1.008,1.008,0,0,0,.016.166.885.885,0,0,0-.016.166.869.869,0,0,0,.87.871h3.829a.87.87,0,0,0,0-1.74Z" transform="translate(-243.6 -183.694)" fill="#4f4848"/>
      <path id="패스_4483" data-name="패스 4483" d="M327.571,191.943l-2.92-3.834,2.638-2.639a.915.915,0,1,0-1.294-1.294l-3.266,3.266v-2.708a1.039,1.039,0,1,0-2.079,0v7.658a1.039,1.039,0,1,0,2.079,0v-2.363l.594-.593,2.761,3.624a.93.93,0,1,0,1.486-1.117Z" transform="translate(-299.067 -183.694)" fill="#4f4848"/>
      <path id="패스_4484" data-name="패스 4484" d="M175.788,192.192l-2.808-7.681-.009-.009a1.38,1.38,0,0,0-1.316-.809,1.34,1.34,0,0,0-1.365.967,1.271,1.271,0,0,0-.054.126l-2.761,7.405a.931.931,0,1,0,1.757.617l.478-1.364h3.843l.477,1.364a.931.931,0,1,0,1.757-.617Zm-5.468-2.487,1.291-3.684c.015,0,.027,0,.042,0l1.29,3.68Z" transform="translate(-161.133 -183.694)" fill="#4f4848"/>
    </g>
  </g>
</svg>
