<svg xmlns="http://www.w3.org/2000/svg" width="23.513" height="24.909" viewBox="0 0 23.513 24.909">
  <g id="그룹_7039" data-name="그룹 7039" transform="translate(-3559.337 17839.749)">
    <path id="패스_4976" data-name="패스 4976" d="M526.563,1685.929a18.97,18.97,0,0,0-17.928,17.928A18.968,18.968,0,0,0,526.563,1685.929Z" transform="translate(3050.702 -19525.678)" fill="#e5c5b9" opacity="0.5"/>
    <path id="패스_4981" data-name="패스 4981" d="M17.928,0A18.97,18.97,0,0,0,0,17.928,18.968,18.968,0,0,0,17.928,0Z" transform="matrix(0.921, 0.391, -0.391, 0.921, 3566.347, -17838.348)" fill="#e5c5b9"/>
  </g>
</svg>
