<svg xmlns="http://www.w3.org/2000/svg" width="66.635" height="66.222" viewBox="0 0 66.635 66.222">
  <g id="그룹_7626" data-name="그룹 7626" transform="translate(-822.486 -529.864)">
    <g id="그룹_179" data-name="그룹 179" transform="translate(841.454 563.169)">
      <line id="선_110" data-name="선 110" x1="4.804" y1="4.845" transform="translate(0 15.213)" fill="none" stroke="#e5c5b9" stroke-linecap="round" stroke-linejoin="round" stroke-width="3"/>
      <line id="선_111" data-name="선 111" x1="4.804" y1="4.845" transform="translate(5.115 10.142)" fill="none" stroke="#e5c5b9" stroke-linecap="round" stroke-linejoin="round" stroke-width="3"/>
      <line id="선_112" data-name="선 112" x1="4.804" y1="4.845" transform="translate(10.229 5.071)" fill="none" stroke="#e5c5b9" stroke-linecap="round" stroke-linejoin="round" stroke-width="3"/>
      <line id="선_113" data-name="선 113" x1="4.804" y1="4.845" transform="translate(15.344)" fill="none" stroke="#e5c5b9" stroke-linecap="round" stroke-linejoin="round" stroke-width="3"/>
    </g>
    <path id="패스_53" data-name="패스 53" d="M875.754,554.486l-35.129,34.83L828.615,577.2l35.129-34.83" transform="translate(0.217 0.563)" fill="none" stroke="#e5c5b9" stroke-linecap="round" stroke-linejoin="round" stroke-width="3"/>
    <path id="패스_54" data-name="패스 54" d="M837.35,584.524l-4.038,4L827.44,582.6l4.038-4" transform="translate(0.154 2.527)" fill="none" stroke="#e5c5b9" stroke-linecap="round" stroke-linejoin="round" stroke-width="3"/>
    <line id="선_114" data-name="선 114" x1="9.691" y2="9.608" transform="translate(874.066 542.712)" fill="none" stroke="#e5c5b9" stroke-linecap="round" stroke-linejoin="round" stroke-width="3"/>
    <line id="선_115" data-name="선 115" y1="9.608" x2="9.691" transform="translate(866.593 535.175)" fill="none" stroke="#e5c5b9" stroke-linecap="round" stroke-linejoin="round" stroke-width="3"/>
    <line id="선_116" data-name="선 116" x2="17.615" y2="17.766" transform="translate(861.159 540.109)" fill="none" stroke="#e5c5b9" stroke-linecap="round" stroke-linejoin="round" stroke-width="3"/>
    <line id="선_117" data-name="선 117" x2="13.879" y2="13.998" transform="translate(873.121 531.985)" fill="none" stroke="#e5c5b9" stroke-linecap="round" stroke-linejoin="round" stroke-width="3"/>
    <line id="선_118" data-name="선 118" y1="4.804" x2="4.845" transform="translate(824.608 589.16)" fill="none" stroke="#e5c5b9" stroke-linecap="round" stroke-linejoin="round" stroke-width="3"/>
  </g>
</svg>
